<?xml version="1.0" encoding="UTF-8"?>
<!DOCTYPE svg PUBLIC "-//W3C//DTD SVG 1.1//EN" "http://www.w3.org/Graphics/SVG/1.1/DTD/svg11.dtd">
<!-- Creator: CorelDRAW Home & Student X8 -->
<svg xmlns="http://www.w3.org/2000/svg" xml:space="preserve" width="100px" height="100px" version="1.1" shape-rendering="geometricPrecision" text-rendering="geometricPrecision" image-rendering="optimizeQuality" fill-rule="evenodd" clip-rule="evenodd"
viewBox="0 0 1000 1000"
 xmlns:xlink="http://www.w3.org/1999/xlink">
 <defs>
   <linearGradient id="id0" gradientUnits="userSpaceOnUse" x1="420.276" y1="283.656" x2="456.61" y2="933.194">
    <stop offset="0" stop-opacity="1" stop-color="#6DCDEA"/>
    <stop offset="1" stop-opacity="1" stop-color="#C3E0E4"/>
   </linearGradient>
   <linearGradient id="id1" gradientUnits="userSpaceOnUse" x1="631.009" y1="377.767" x2="724.766" y2="384.003">
    <stop offset="0" stop-opacity="1" stop-color="#617C81"/>
    <stop offset="1" stop-opacity="1" stop-color="#DFCFB0"/>
   </linearGradient>
   <linearGradient id="id2" gradientUnits="userSpaceOnUse" x1="284.565" y1="360.074" x2="484.48" y2="347.885">
    <stop offset="0" stop-opacity="1" stop-color="#617C81"/>
    <stop offset="1" stop-opacity="1" stop-color="#DCC7B0"/>
   </linearGradient>
   <linearGradient id="id3" gradientUnits="userSpaceOnUse" x1="300.38" y1="210.273" x2="466.397" y2="210.238">
    <stop offset="0" stop-opacity="1" stop-color="#156B8B"/>
    <stop offset="1" stop-opacity="1" stop-color="#B8BEC1"/>
   </linearGradient>
   <linearGradient id="id4" gradientUnits="userSpaceOnUse" x1="655.186" y1="249.911" x2="732.455" y2="261.581">
    <stop offset="0" stop-opacity="1" stop-color="#156B8B"/>
    <stop offset="1" stop-opacity="1" stop-color="#B8BEC1"/>
   </linearGradient>
   <linearGradient id="id5" gradientUnits="userSpaceOnUse" x1="461.815" y1="595.835" x2="569.579" y2="590.603">
    <stop offset="0" stop-opacity="1" stop-color="#617C81"/>
    <stop offset="1" stop-opacity="1" stop-color="#DCC7B0"/>
   </linearGradient>
   <linearGradient id="id6" gradientUnits="userSpaceOnUse" x1="470.342" y1="509.106" x2="559.823" y2="509.071">
    <stop offset="0" stop-opacity="1" stop-color="#156B8B"/>
    <stop offset="1" stop-opacity="1" stop-color="#B8BEC1"/>
   </linearGradient>
   <linearGradient id="id7" gradientUnits="userSpaceOnUse" x1="195.698" y1="857.31" x2="278.542" y2="852.267">
    <stop offset="0" stop-opacity="1" stop-color="#617C81"/>
    <stop offset="1" stop-opacity="1" stop-color="#DCC7B0"/>
   </linearGradient>
   <linearGradient id="id8" gradientUnits="userSpaceOnUse" x1="202.254" y1="795.231" x2="271.053" y2="795.219">
    <stop offset="0" stop-opacity="1" stop-color="#156B8B"/>
    <stop offset="1" stop-opacity="1" stop-color="#B8BEC1"/>
   </linearGradient>
 </defs>
 <g id="Layer_x0020_1">
  <metadata id="CorelCorpID_0Corel-Layer"/>
  <path fill="url(#id0)" stroke="#336699" stroke-width="19.9962" d="M476 257c268,-136 496,-109 510,60 14,169 -192,415 -459,551 -267,135 -495,108 -509,-61 -14,-169 191,-415 458,-550z"/>
  <rect fill="url(#id1)" stroke="#48676E" stroke-width="9.9922" x="631" y="292" width="93.7566" height="371.471"/>
  <path fill="url(#id2)" stroke="#48676E" stroke-width="9.9922" d="M289 836l35 106 68 -18c35,-12 71,-26 108,-43l0 -634 -216 -2 5 591z"/>
  <path fill="#617C81" stroke="#48676E" stroke-width="9.9922" d="M418 475l404 0 0 174c-79,84 -181,161 -295,219 -37,18 -74,34 -109,47l0 -440z"/>
  <path fill="#617C81" stroke="#48676E" stroke-width="9.9922" d="M70 603l305 0 0 326c-132,39 -243,32 -305,-18l0 -308z"/>
  <path fill="#E2CDB2" stroke="#48676E" stroke-width="9.9922" d="M822 475l-65 0 0 237c23,-20 45,-41 65,-63l0 -174z"/>
  <path fill="#E2CDB2" stroke="#48676E" stroke-width="9.9922" d="M375 603l-60 0 0 341c19,-4 39,-9 60,-15l0 -326z"/>
  <polygon fill="#156B8B" stroke="#0A2931" stroke-width="9.9922" points="46,621 288,644 343,546 77,551 "/>
  <path fill="#12252F" stroke="#263E48" stroke-width="9.9922" d="M664 413l31 1c0,-16 0,-31 0,-47 -1,-7 -11,-19 -14,-24 -4,5 -16,18 -17,23l0 47z"/>
  <path fill="#12252F" stroke="#263E48" stroke-width="9.9922" d="M680 648l36 4c0,-24 0,-48 0,-71 -2,-11 -13,-30 -17,-38 -5,7 -18,26 -19,34l0 71z"/>
  <path fill="#12252F" stroke="#263E48" stroke-width="9.9922" d="M610 641l35 3c0,-23 0,-45 0,-68 -2,-10 -12,-28 -16,-36 -5,6 -17,25 -19,32l0 69z"/>
  <path fill="#12252F" stroke="#263E48" stroke-width="9.9922" d="M542 634l30 3c0,-20 0,-41 0,-61 -2,-9 -11,-25 -14,-31 -4,5 -15,22 -16,28l0 61z"/>
  <polygon fill="#87695D" stroke="#2B3733" stroke-width="9.9922" points="391,498 716,515 784,402 439,402 "/>
  <polygon fill="#D19C83" stroke="#2B3733" stroke-width="9.9922" points="794,385 710,527 850,472 "/>
  <polygon fill="#AFC0C4" stroke="#0A2931" stroke-width="9.9922" points="288,644 351,530 391,606 "/>
  <polygon fill="url(#id3)" stroke="#0A2931" stroke-width="9.9922" points="385,54 254,257 525,257 "/>
  <path fill="#12252F" stroke="#263E48" stroke-width="9.9922" d="M224 921l34 8c0,-22 0,-45 0,-67 -2,-10 -12,-28 -16,-36 -4,5 -16,22 -18,29l0 66z"/>
  <path fill="#12252F" stroke="#263E48" stroke-width="9.9922" d="M160 906l32 7c0,-21 0,-42 0,-64 -2,-9 -11,-27 -15,-35 -4,6 -16,22 -17,28l0 64z"/>
  <path fill="#12252F" stroke="#263E48" stroke-width="9.9922" d="M96 890l28 7c0,-22 0,-44 0,-66 -1,-10 -10,-29 -13,-37 -3,6 -14,23 -15,29l0 67z"/>
  <polygon fill="url(#id4)" stroke="#0A2931" stroke-width="9.9922" points="676,78 609,308 749,308 "/>
  <path fill="#12252F" stroke="#263E48" stroke-width="9.9922" d="M226 765l33 8c0,-22 0,-44 0,-66 -1,-10 -11,-29 -15,-37 -4,6 -17,22 -18,29l0 66z"/>
  <path fill="#12252F" stroke="#263E48" stroke-width="9.9922" d="M162 750l31 7c0,-21 0,-42 0,-63 -1,-10 -11,-28 -14,-35 -4,5 -16,21 -17,28l0 63z"/>
  <path fill="#12252F" stroke="#263E48" stroke-width="9.9922" d="M98 747l28 7c0,-21 0,-43 0,-64 -1,-10 -10,-28 -13,-35 -4,5 -14,21 -15,28l0 64z"/>
  <path fill="#617C81" stroke="#48676E" stroke-width="9.9922" d="M686 679l-428 0 0 273c79,-7 171,-35 269,-84 56,-29 110,-62 159,-99l0 -90z"/>
  <path fill="#E2CDB2" stroke="#48676E" stroke-width="9.9922" d="M686 679l-182 0 0 200c8,-4 16,-8 23,-11 56,-29 110,-62 159,-99l0 -90z"/>
  <path fill="#12252F" stroke="#263E48" stroke-width="9.9922" d="M436 859l33 10c0,-22 0,-44 0,-66 -2,-10 -12,-30 -16,-38 -4,5 -16,21 -17,28l0 66z"/>
  <path fill="#12252F" stroke="#263E48" stroke-width="9.9922" d="M371 839l32 9c0,-21 0,-42 0,-63 -2,-10 -11,-28 -15,-36 -4,5 -16,20 -17,27l0 63z"/>
  <path fill="#12252F" stroke="#263E48" stroke-width="9.9922" d="M307 819l28 9c0,-19 0,-38 0,-56 -1,-9 -9,-25 -13,-32 -3,4 -14,17 -15,23l0 56z"/>
  <path fill="url(#id5)" stroke="#48676E" stroke-width="9.9922" d="M578 690l0 -143 -116 -1 1 149c36,2 74,0 115,-5z"/>
  <polygon fill="url(#id6)" stroke="#0A2931" stroke-width="9.9922" points="516,363 445,553 591,553 "/>
  <polygon fill="#156B8B" stroke="#0A2931" stroke-width="9.9922" points="224,694 465,738 578,606 335,606 "/>
  <polygon fill="#AFC0C4" stroke="#0A2931" stroke-width="9.9922" points="450,757 585,590 715,663 "/>
  <path fill="url(#id7)" stroke="#48676E" stroke-width="9.9922" d="M285 949l0 -139 -89 0 1 143c27,2 57,0 88,-4z"/>
  <polygon fill="url(#id8)" stroke="#0A2931" stroke-width="9.9922" points="237,731 183,815 295,815 "/>
  <path fill="#12252F" stroke="#263E48" stroke-width="9.9922" d="M462 898l-4 -8c-2,3 -6,8 -10,13 5,-2 9,-3 14,-5z"/>
  <path fill="#12252F" stroke="#263E48" stroke-width="9.9922" d="M408 918l0 -8c-2,-10 -11,-28 -15,-36 -4,5 -16,20 -17,26l0 28c11,-3 21,-6 32,-10z"/>
  <path fill="#12252F" stroke="#263E48" stroke-width="9.9922" d="M340 938l0 -41c-1,-9 -9,-26 -13,-32 -3,4 -14,17 -15,23l0 56c9,-2 19,-4 28,-6z"/>
  <path fill="#12252F" stroke="#263E48" stroke-width="9.9922" d="M375 356l32 1c0,-16 0,-31 0,-47 -2,-7 -11,-19 -15,-24 -4,5 -16,18 -17,23l0 47z"/>
  <path fill="#12252F" stroke="#263E48" stroke-width="9.9922" d="M305 350l26 6c0,-15 0,-31 0,-46 -1,-7 -9,-21 -12,-26 -3,4 -13,15 -14,19l0 47z"/>
  <path fill="#12252F" stroke="#263E48" stroke-width="9.9922" d="M481 353l-26 6c0,-15 0,-31 0,-46 1,-7 9,-21 12,-26 3,4 13,15 14,19l0 47z"/>
  <path fill="none" stroke="#336699" stroke-width="19.9962" d="M902 553c-86,122 -224,238 -375,315 -267,135 -495,108 -509,-61 -2,-20 -1,-41 4,-63"/>
 </g>
</svg>
